+----------------------------------------------------------------------------+
|      Executing MDF           CreateMDF                                     |
+----------------------------------------------------------------------------+
# setting LC_ALL to "C"
ApplicationMgr       INFO Application Manager Configured successfully
{
  "ApplicationMgr": {
    "AppName": "",
    "EvtSel": "NONE",
    "HistogramPersistency": "NONE",
    "OutStream": [
      "OutputStream/Writer_0",
      "Online::MDFWriter/Writer_1",
      "Online::MDFWriter/Writer_2",
      "Online::MDFWriter/Writer_3",
      "Online::MDFWriter/Writer_4",
      "Online::MDFWriter/Writer_5",
      "Online::MDFWriter/Writer_6",
      "Online::MDFWriter/Writer_7",
      "Online::MDFWriter/Writer_8",
      "Online::MDFWriter/Writer_9",
      "Online::MDFWriter/Writer_10"
    ],
    "TopAlg": [
      "Online::RawEventTestCreator/Creator",
      "StoreExplorerAlg/Explorer"
    ]
  },
  "EventDataSvc": {
    "EnableFaultHandler": true,
    "ForceLeaves": true,
    "RootCLID": 1
  },
  "EventPersistencySvc": {
    "CnvServices": [
      "LHCb::RawDataCnvSvc/RawDataCnvSvc"
    ]
  },
  "Explorer": {
    "AccessForeign": true,
    "Load": true,
    "OutputLevel": 3,
    "PrintFreq": 0.00021
  },
  "FileCatalog": {
    "Catalogs": [
      "xmlcatalog_file:qmTest.xml"
    ]
  },
  "IODataManager": {
    "AgeLimit": 1,
    "OutputLevel": 3
  },
  "MessageSvc": {
    "OutputLevel": 3
  },
  "Writer_0": {
    "ItemList": [
      "/Event#1"
    ],
    "Output": "DATAFILE='PFN:root:file://mdfData_0.dat' SVC='LHCb::RawDataCnvSvc' OPT='REC'"
  },
  "Writer_1": {
    "ChecksumType": 0,
    "Compress": 0,
    "Connection": "LFN:/user/frank/markus/mdf_1.dat",
    "GenerateMD5": true
  },
  "Writer_10": {
    "Connection": "./mdfData_10.dat"
  },
  "Writer_2": {
    "ChecksumType": 1,
    "Compress": 0,
    "Connection": "LFN:/user/frank/markus/mdf_2.dat",
    "GenerateMD5": true
  },
  "Writer_3": {
    "ChecksumType": 1,
    "Compress": 2,
    "Connection": "PFN:root:mdfData_3.dat",
    "GenerateMD5": true
  },
  "Writer_4": {
    "ChecksumType": 0,
    "Compress": 2,
    "Connection": "root:mdfData_4.dat",
    "GenerateMD5": true
  },
  "Writer_5": {
    "Connection": "PFN:root:file://./mdfData_5.dat"
  },
  "Writer_6": {
    "Connection": "PFN:root:file://./mdfData_6.dat"
  },
  "Writer_7": {
    "Connection": "PFN:./mdfData_7.dat"
  },
  "Writer_8": {
    "Connection": "root:file://./mdfData_8.dat"
  },
  "Writer_9": {
    "Connection": "root:file:./mdfData_9.dat"
  }
}
+-------------------> Start processing events
EventPersistenc...   INFO Added successfully Conversion service:RawDataCnvSvc
Writer_0             INFO Data source: EventDataSvc output: DATAFILE='PFN:root:file://mdfData_0.dat' SVC='LHCb::RawDataCnvSvc' OPT='REC'
Writer_1             INFO Initialize MDFWriter
Writer_1             INFO Received event request connection.
Writer_2             INFO Initialize MDFWriter
Writer_2             INFO Received event request connection.
Writer_3             INFO Initialize MDFWriter
Writer_3             INFO Received event request connection.
Writer_4             INFO Initialize MDFWriter
Writer_4             INFO Received event request connection.
Writer_5             INFO Initialize MDFWriter
Writer_5             INFO Received event request connection.
Writer_6             INFO Initialize MDFWriter
Writer_6             INFO Received event request connection.
Writer_7             INFO Initialize MDFWriter
Writer_7             INFO Received event request connection.
Writer_8             INFO Initialize MDFWriter
Writer_8             INFO Received event request connection.
Writer_9             INFO Initialize MDFWriter
Writer_9             INFO Received event request connection.
Writer_10            INFO Initialize MDFWriter
Writer_10            INFO Received event request connection.
EventLoopMgr      WARNING Unable to locate service "EventSelector"
EventLoopMgr      WARNING No events will be processed from external input.
ApplicationMgr       INFO Application Manager Initialized successfully
JobOptionsSvc        INFO Properties are dumped into "gaudionline.go_03_create_mdf.joboptsdump"
ApplicationMgr       INFO Application Manager Started successfully
Explorer             INFO ========= /Event[0x1486bce0@EventDataSvc]:
Explorer             INFO +--> /Event [No Address]  DataObject
Explorer             INFO   +--> /DAQ [No Address]  DataObject
Explorer             INFO     +--> /RawEvent [No Address]  LHCb::RawEvent
RawDataCnvSvc        INFO Opened(NEW)  MDF stream:PFN:root:file://mdfData_0.dat ID:0x14888ea0
+-------------------> Finished processing events
ApplicationMgr       INFO Application Manager Stopped successfully
Writer_0             INFO Events output: 2000
Writer_1             INFO File Size:20880000 Output:LFN:/user/frank/markus/mdf_1.dat
Writer_2             INFO File Size:20880000 Output:LFN:/user/frank/markus/mdf_2.dat
Writer_3             INFO File Size: 1756000 Output:PFN:root:mdfData_3.dat
Writer_4             INFO File Size: 1756000 Output:root:mdfData_4.dat
Writer_5             INFO File Size: 1756000 Output:PFN:root:file://./mdfData_5.dat
Writer_6             INFO File Size: 1756000 Output:PFN:root:file://./mdfData_6.dat
Writer_7             INFO File Size: 1756000 Output:PFN:./mdfData_7.dat
Writer_8             INFO File Size: 1756000 Output:root:file://./mdfData_8.dat
Writer_9             INFO File Size: 1756000 Output:root:file:./mdfData_9.dat
Writer_10            INFO File Size: 1756000 Output:./mdfData_10.dat
EventLoopMgr         INFO Histograms converted successfully according to request.
RawDataCnvSvc        INFO Closed connected MDF stream:PFN:root:file://mdfData_0.dat ID:0x14888ea0
ApplicationMgr       INFO Application Manager Finalized successfully
ApplicationMgr       INFO Application Manager Terminated successfully
