+----------------------------------------------------------------------------+
|      Executing MDF           ReadMDF                                       |
+----------------------------------------------------------------------------+
# setting LC_ALL to "C"
ApplicationMgr       INFO Application Manager Configured successfully
{
  "ApplicationMgr": {
    "AppName": "",
    "HistogramPersistency": "NONE",
    "TopAlg": [
      "Online::Tell1BankDump/Dump",
      "StoreExplorerAlg/Explorer"
    ]
  },
  "Dump": {
    "CheckData": false,
    "DumpData": false,
    "FullDump": false,
    "OutputLevel": 3
  },
  "EventDataSvc": {
    "EnableFaultHandler": true,
    "ForceLeaves": true,
    "RootCLID": 1
  },
  "EventPersistencySvc": {
    "CnvServices": [
      "LHCb::RawDataCnvSvc/RawDataCnvSvc"
    ]
  },
  "EventSelector": {
    "Input": [
      "DATA='LFN:/user/frank/markus/mdf_1.dat' SVC='LHCb::MDFSelector'",
      "DATA='PFN:root:file://mdfData_0.dat'        SVC='LHCb::MDFSelector'",
      "DATA='root:file:mdfData_2.dat'              SVC='LHCb::MDFSelector'",
      "DATA='PFN:root:mdfData_3.dat'               SVC='LHCb::MDFSelector'",
      "DATA='root:mdfData_4.dat'                   SVC='LHCb::MDFSelector'",
      "DATA='PFN:root:file://./mdfData_5.dat'        SVC='LHCb::MDFSelector'",
      "DATA='PFN:root:file:./mdfData_6.dat'          SVC='LHCb::MDFSelector'",
      "DATA='PFN:root:./mdfData_7.dat'               SVC='LHCb::MDFSelector'",
      "DATA='root:file://./mdfData_8.dat'            SVC='LHCb::MDFSelector'",
      "DATA='root:file:./mdfData_9.dat'              SVC='LHCb::MDFSelector'",
      "DATA='./mdfData_10.dat'                       SVC='LHCb::MDFSelector'"
    ],
    "PrintFreq": 200
  },
  "Explorer": {
    "AccessForeign": true,
    "Load": true,
    "OutputLevel": 3,
    "PrintFreq": 0.00021
  },
  "FileCatalog": {
    "Catalogs": [
      "xmlcatalog_file:qmTest.xml"
    ]
  },
  "IODataManager": {
    "AgeLimit": 1,
    "OutputLevel": 3
  }
}
+-------------------> Start processing events
EventSelector        INFO Stream:EventSelector.DataStreamTool_1 Def:DATA='LFN:/user/frank/markus/mdf_1.dat' SVC='LHCb::MDFSelector'
ApplicationMgr       INFO Application Manager Initialized successfully
JobOptionsSvc        INFO Properties are dumped into "mdf.mdf_03_read_mdf.joboptsdump"
ApplicationMgr       INFO Application Manager Started successfully
EventSelector.D...   INFO Compression:0 Checksum:0
EventSelector     SUCCESS Reading Event record 1. Record number within stream 1: 1
EventPersistenc...   INFO Added successfully Conversion service:RawDataCnvSvc
Explorer             INFO ========= /Event[0x176407a0@EventDataSvc]:
Explorer             INFO +--> /Event [Address: CLID=0x1 Type=0xa000000]  DataObject
Explorer             INFO   +--> /DAQ [Address: CLID=0x1 Type=0xa000000]  DataObject
Explorer             INFO     +--> /RawEvent [Address: CLID=0x3ea Type=0xa000000]  LHCb::RawEvent
EventSelector     SUCCESS Reading Event record 201. Record number within stream 1: 201
EventSelector     SUCCESS Reading Event record 401. Record number within stream 1: 401
EventSelector     SUCCESS Reading Event record 601. Record number within stream 1: 601
EventSelector     SUCCESS Reading Event record 801. Record number within stream 1: 801
EventSelector     SUCCESS Reading Event record 1001. Record number within stream 1: 1001
EventSelector     SUCCESS Reading Event record 1201. Record number within stream 1: 1201
EventSelector     SUCCESS Reading Event record 1401. Record number within stream 1: 1401
EventSelector     SUCCESS Reading Event record 1601. Record number within stream 1: 1601
EventSelector     SUCCESS Reading Event record 1801. Record number within stream 1: 1801
EventSelector.D...   INFO Cannot read more data  (Header). End-of-File reached.
EventSelector        INFO Stream:EventSelector.DataStreamTool_2 Def:DATA='PFN:root:file://mdfData_0.dat'        SVC='LHCb::MDFSelector'
EventSelector.D...   INFO Compression:2 Checksum:1
EventSelector     SUCCESS Reading Event record 2001. Record number within stream 2: 1
EventSelector     SUCCESS Reading Event record 2201. Record number within stream 2: 201
EventSelector     SUCCESS Reading Event record 2401. Record number within stream 2: 401
EventSelector     SUCCESS Reading Event record 2601. Record number within stream 2: 601
EventSelector     SUCCESS Reading Event record 2801. Record number within stream 2: 801
EventSelector     SUCCESS Reading Event record 3001. Record number within stream 2: 1001
EventSelector     SUCCESS Reading Event record 3201. Record number within stream 2: 1201
EventSelector     SUCCESS Reading Event record 3401. Record number within stream 2: 1401
EventSelector     SUCCESS Reading Event record 3601. Record number within stream 2: 1601
EventSelector     SUCCESS Reading Event record 3801. Record number within stream 2: 1801
EventSelector.D...   INFO Cannot read more data  (Header). End-of-File reached.
IODataManager       ERROR Referring to existing dataset root:file:mdfData_2.dat by its physical name.
IODataManager       ERROR You may not be able to navigate back to the input file -- processing continues
EventSelector        INFO Stream:EventSelector.DataStreamTool_3 Def:DATA='root:file:mdfData_2.dat'              SVC='LHCb::MDFSelector'
EventSelector.D...   INFO Compression:0 Checksum:1
EventSelector     SUCCESS Reading Event record 4001. Record number within stream 3: 1
EventSelector     SUCCESS Reading Event record 4201. Record number within stream 3: 201
EventSelector     SUCCESS Reading Event record 4401. Record number within stream 3: 401
EventSelector     SUCCESS Reading Event record 4601. Record number within stream 3: 601
Explorer             INFO ========= /Event[0x176af800@EventDataSvc]:
Explorer             INFO +--> /Event [Address: CLID=0x1 Type=0xa000000]  DataObject
Explorer             INFO   +--> /DAQ [Address: CLID=0x1 Type=0xa000000]  DataObject
Explorer             INFO     +--> /RawEvent [Address: CLID=0x3ea Type=0xa000000]  LHCb::RawEvent
EventSelector     SUCCESS Reading Event record 4801. Record number within stream 3: 801
EventSelector     SUCCESS Reading Event record 5001. Record number within stream 3: 1001
EventSelector     SUCCESS Reading Event record 5201. Record number within stream 3: 1201
EventSelector     SUCCESS Reading Event record 5401. Record number within stream 3: 1401
EventSelector     SUCCESS Reading Event record 5601. Record number within stream 3: 1601
EventSelector     SUCCESS Reading Event record 5801. Record number within stream 3: 1801
EventSelector.D...   INFO Cannot read more data  (Header). End-of-File reached.
EventSelector        INFO Stream:EventSelector.DataStreamTool_4 Def:DATA='PFN:root:mdfData_3.dat'               SVC='LHCb::MDFSelector'
EventSelector.D...   INFO Compression:2 Checksum:1
EventSelector     SUCCESS Reading Event record 6001. Record number within stream 4: 1
EventSelector     SUCCESS Reading Event record 6201. Record number within stream 4: 201
EventSelector     SUCCESS Reading Event record 6401. Record number within stream 4: 401
EventSelector     SUCCESS Reading Event record 6601. Record number within stream 4: 601
EventSelector     SUCCESS Reading Event record 6801. Record number within stream 4: 801
EventSelector     SUCCESS Reading Event record 7001. Record number within stream 4: 1001
EventSelector     SUCCESS Reading Event record 7201. Record number within stream 4: 1201
EventSelector     SUCCESS Reading Event record 7401. Record number within stream 4: 1401
EventSelector     SUCCESS Reading Event record 7601. Record number within stream 4: 1601
EventSelector     SUCCESS Reading Event record 7801. Record number within stream 4: 1801
EventSelector.D...   INFO Cannot read more data  (Header). End-of-File reached.
EventSelector        INFO Stream:EventSelector.DataStreamTool_5 Def:DATA='root:mdfData_4.dat'                   SVC='LHCb::MDFSelector'
EventSelector.D...   INFO Compression:2 Checksum:0
EventSelector     SUCCESS Reading Event record 8001. Record number within stream 5: 1
EventSelector     SUCCESS Reading Event record 8201. Record number within stream 5: 201
EventSelector     SUCCESS Reading Event record 8401. Record number within stream 5: 401
EventSelector     SUCCESS Reading Event record 8601. Record number within stream 5: 601
EventSelector     SUCCESS Reading Event record 8801. Record number within stream 5: 801
EventSelector     SUCCESS Reading Event record 9001. Record number within stream 5: 1001
EventSelector     SUCCESS Reading Event record 9201. Record number within stream 5: 1201
EventSelector     SUCCESS Reading Event record 9401. Record number within stream 5: 1401
Explorer             INFO ========= /Event[0x1765e610@EventDataSvc]:
Explorer             INFO +--> /Event [Address: CLID=0x1 Type=0xa000000]  DataObject
Explorer             INFO   +--> /DAQ [Address: CLID=0x1 Type=0xa000000]  DataObject
Explorer             INFO     +--> /RawEvent [Address: CLID=0x3ea Type=0xa000000]  LHCb::RawEvent
EventSelector     SUCCESS Reading Event record 9601. Record number within stream 5: 1601
EventSelector     SUCCESS Reading Event record 9801. Record number within stream 5: 1801
EventSelector.D...   INFO Cannot read more data  (Header). End-of-File reached.
EventSelector        INFO Stream:EventSelector.DataStreamTool_6 Def:DATA='PFN:root:file://./mdfData_5.dat'        SVC='LHCb::MDFSelector'
EventSelector.D...   INFO Compression:2 Checksum:1
EventSelector     SUCCESS Reading Event record 10001. Record number within stream 6: 1
EventSelector     SUCCESS Reading Event record 10201. Record number within stream 6: 201
EventSelector     SUCCESS Reading Event record 10401. Record number within stream 6: 401
EventSelector     SUCCESS Reading Event record 10601. Record number within stream 6: 601
EventSelector     SUCCESS Reading Event record 10801. Record number within stream 6: 801
EventSelector     SUCCESS Reading Event record 11001. Record number within stream 6: 1001
EventSelector     SUCCESS Reading Event record 11201. Record number within stream 6: 1201
EventSelector     SUCCESS Reading Event record 11401. Record number within stream 6: 1401
EventSelector     SUCCESS Reading Event record 11601. Record number within stream 6: 1601
EventSelector     SUCCESS Reading Event record 11801. Record number within stream 6: 1801
EventSelector.D...   INFO Cannot read more data  (Header). End-of-File reached.
IODataManager       ERROR Referring to existing dataset root:file:./mdfData_6.dat by its physical name.
IODataManager       ERROR You may not be able to navigate back to the input file -- processing continues
EventSelector        INFO Stream:EventSelector.DataStreamTool_7 Def:DATA='PFN:root:file:./mdfData_6.dat'          SVC='LHCb::MDFSelector'
EventSelector.D...   INFO Compression:2 Checksum:1
EventSelector     SUCCESS Reading Event record 12001. Record number within stream 7: 1
EventSelector     SUCCESS Reading Event record 12201. Record number within stream 7: 201
EventSelector     SUCCESS Reading Event record 12401. Record number within stream 7: 401
EventSelector     SUCCESS Reading Event record 12601. Record number within stream 7: 601
EventSelector     SUCCESS Reading Event record 12801. Record number within stream 7: 801
EventSelector     SUCCESS Reading Event record 13001. Record number within stream 7: 1001
EventSelector     SUCCESS Reading Event record 13201. Record number within stream 7: 1201
EventSelector     SUCCESS Reading Event record 13401. Record number within stream 7: 1401
EventSelector     SUCCESS Reading Event record 13601. Record number within stream 7: 1601
EventSelector     SUCCESS Reading Event record 13801. Record number within stream 7: 1801
EventSelector.D...   INFO Cannot read more data  (Header). End-of-File reached.
IODataManager       ERROR Referring to existing dataset root:./mdfData_7.dat by its physical name.
IODataManager       ERROR You may not be able to navigate back to the input file -- processing continues
EventSelector        INFO Stream:EventSelector.DataStreamTool_8 Def:DATA='PFN:root:./mdfData_7.dat'               SVC='LHCb::MDFSelector'
EventSelector.D...   INFO Compression:2 Checksum:1
EventSelector     SUCCESS Reading Event record 14001. Record number within stream 8: 1
EventSelector     SUCCESS Reading Event record 14201. Record number within stream 8: 201
Explorer             INFO ========= /Event[0x176bbdb0@EventDataSvc]:
Explorer             INFO +--> /Event [Address: CLID=0x1 Type=0xa000000]  DataObject
Explorer             INFO   +--> /DAQ [Address: CLID=0x1 Type=0xa000000]  DataObject
Explorer             INFO     +--> /RawEvent [Address: CLID=0x3ea Type=0xa000000]  LHCb::RawEvent
EventSelector     SUCCESS Reading Event record 14401. Record number within stream 8: 401
EventSelector     SUCCESS Reading Event record 14601. Record number within stream 8: 601
EventSelector     SUCCESS Reading Event record 14801. Record number within stream 8: 801
EventSelector     SUCCESS Reading Event record 15001. Record number within stream 8: 1001
EventSelector     SUCCESS Reading Event record 15201. Record number within stream 8: 1201
EventSelector     SUCCESS Reading Event record 15401. Record number within stream 8: 1401
EventSelector     SUCCESS Reading Event record 15601. Record number within stream 8: 1601
EventSelector     SUCCESS Reading Event record 15801. Record number within stream 8: 1801
EventSelector.D...   INFO Cannot read more data  (Header). End-of-File reached.
EventSelector        INFO Stream:EventSelector.DataStreamTool_9 Def:DATA='root:file://./mdfData_8.dat'            SVC='LHCb::MDFSelector'
EventSelector.D...   INFO Compression:2 Checksum:1
EventSelector     SUCCESS Reading Event record 16001. Record number within stream 9: 1
EventSelector     SUCCESS Reading Event record 16201. Record number within stream 9: 201
EventSelector     SUCCESS Reading Event record 16401. Record number within stream 9: 401
EventSelector     SUCCESS Reading Event record 16601. Record number within stream 9: 601
EventSelector     SUCCESS Reading Event record 16801. Record number within stream 9: 801
EventSelector     SUCCESS Reading Event record 17001. Record number within stream 9: 1001
EventSelector     SUCCESS Reading Event record 17201. Record number within stream 9: 1201
EventSelector     SUCCESS Reading Event record 17401. Record number within stream 9: 1401
EventSelector     SUCCESS Reading Event record 17601. Record number within stream 9: 1601
EventSelector     SUCCESS Reading Event record 17801. Record number within stream 9: 1801
EventSelector.D...   INFO Cannot read more data  (Header). End-of-File reached.
EventSelector        INFO Stream:EventSelector.DataStreamTool_10 Def:DATA='root:file:./mdfData_9.dat'              SVC='LHCb::MDFSelector'
EventSelector.D...   INFO Compression:2 Checksum:1
EventSelector     SUCCESS Reading Event record 18001. Record number within stream 10: 1
EventSelector     SUCCESS Reading Event record 18201. Record number within stream 10: 201
EventSelector     SUCCESS Reading Event record 18401. Record number within stream 10: 401
EventSelector     SUCCESS Reading Event record 18601. Record number within stream 10: 601
EventSelector     SUCCESS Reading Event record 18801. Record number within stream 10: 801
EventSelector     SUCCESS Reading Event record 19001. Record number within stream 10: 1001
Explorer             INFO ========= /Event[0x17540c50@EventDataSvc]:
Explorer             INFO +--> /Event [Address: CLID=0x1 Type=0xa000000]  DataObject
Explorer             INFO   +--> /DAQ [Address: CLID=0x1 Type=0xa000000]  DataObject
Explorer             INFO     +--> /RawEvent [Address: CLID=0x3ea Type=0xa000000]  LHCb::RawEvent
EventSelector     SUCCESS Reading Event record 19201. Record number within stream 10: 1201
EventSelector     SUCCESS Reading Event record 19401. Record number within stream 10: 1401
EventSelector     SUCCESS Reading Event record 19601. Record number within stream 10: 1601
EventSelector     SUCCESS Reading Event record 19801. Record number within stream 10: 1801
EventSelector.D...   INFO Cannot read more data  (Header). End-of-File reached.
EventSelector        INFO Stream:EventSelector.DataStreamTool_11 Def:DATA='./mdfData_10.dat'                       SVC='LHCb::MDFSelector'
EventSelector.D...   INFO Compression:2 Checksum:1
EventSelector     SUCCESS Reading Event record 20001. Record number within stream 11: 1
EventSelector     SUCCESS Reading Event record 20201. Record number within stream 11: 201
EventSelector     SUCCESS Reading Event record 20401. Record number within stream 11: 401
EventSelector     SUCCESS Reading Event record 20601. Record number within stream 11: 601
EventSelector     SUCCESS Reading Event record 20801. Record number within stream 11: 801
EventSelector     SUCCESS Reading Event record 21001. Record number within stream 11: 1001
EventSelector     SUCCESS Reading Event record 21201. Record number within stream 11: 1201
EventSelector     SUCCESS Reading Event record 21401. Record number within stream 11: 1401
EventSelector     SUCCESS Reading Event record 21601. Record number within stream 11: 1601
EventSelector     SUCCESS Reading Event record 21801. Record number within stream 11: 1801
EventSelector.D...   INFO Cannot read more data  (Header). End-of-File reached.
EventLoopMgr         INFO No more events in event selection
+-------------------> Finished processing events
ApplicationMgr       INFO Application Manager Stopped successfully
EventLoopMgr         INFO Histograms converted successfully according to request.
ToolSvc              INFO Removing all tools created by ToolSvc
ApplicationMgr       INFO Application Manager Finalized successfully
ApplicationMgr       INFO Application Manager Terminated successfully
